{
  "main.css": "/static/css/main.58f6e77c.chunk.css",
  "main.js": "/static/js/main.dc7573d5.chunk.js",
  "main.js.map": "/static/js/main.dc7573d5.chunk.js.map",
  "runtime~main.js": "/static/js/runtime~main.a8a9905a.js",
  "runtime~main.js.map": "/static/js/runtime~main.a8a9905a.js.map",
  "static/css/2.1222e142.chunk.css": "/static/css/2.1222e142.chunk.css",
  "static/js/2.73c9f6b9.chunk.js": "/static/js/2.73c9f6b9.chunk.js",
  "static/js/2.73c9f6b9.chunk.js.map": "/static/js/2.73c9f6b9.chunk.js.map",
  "index.html": "/index.html",
  "precache-manifest.29d9ff2b115f68b82eace3d6df4af2cf.js": "/precache-manifest.29d9ff2b115f68b82eace3d6df4af2cf.js",
  "service-worker.js": "/service-worker.js",
  "static/css/2.1222e142.chunk.css.map": "/static/css/2.1222e142.chunk.css.map",
  "static/css/main.58f6e77c.chunk.css.map": "/static/css/main.58f6e77c.chunk.css.map",
  "static/media/custom.css": "/static/media/sprite_char.88f68fdf.png",
  "static/media/loader.gif": "/static/media/loader.0084d7bd.gif"
}