{
  "main.css": "/static/css/main.3f17c37b.chunk.css",
  "main.js": "/static/js/main.1a5b28ec.chunk.js",
  "main.js.map": "/static/js/main.1a5b28ec.chunk.js.map",
  "runtime~main.js": "/static/js/runtime~main.a8a9905a.js",
  "runtime~main.js.map": "/static/js/runtime~main.a8a9905a.js.map",
  "static/css/2.1222e142.chunk.css": "/static/css/2.1222e142.chunk.css",
  "static/js/2.73c9f6b9.chunk.js": "/static/js/2.73c9f6b9.chunk.js",
  "static/js/2.73c9f6b9.chunk.js.map": "/static/js/2.73c9f6b9.chunk.js.map",
  "index.html": "/index.html",
  "precache-manifest.178e41de53b7299a09c35a50eb026325.js": "/precache-manifest.178e41de53b7299a09c35a50eb026325.js",
  "service-worker.js": "/service-worker.js",
  "static/css/2.1222e142.chunk.css.map": "/static/css/2.1222e142.chunk.css.map",
  "static/css/main.3f17c37b.chunk.css.map": "/static/css/main.3f17c37b.chunk.css.map",
  "static/media/custom.css": "/static/media/sprite_char.88f68fdf.png",
  "static/media/loader.gif": "/static/media/loader.0084d7bd.gif"
}